<svg width="21" height="19" viewBox="0 0 21 19" fill="none"
     xmlns="http://www.w3.org/2000/svg">
    <path d="M1.36348 17.9509L7.51068 12.9887" stroke="#353535"
          stroke-width="1.5"/>
    <circle cx="13.131" cy="8.49182" r="7.11877" stroke="#353535"
            stroke-width="1.5"/>
</svg>
