<svg xmlns="http://www.w3.org/2000/svg" width="19" height="19" viewBox="0 0 19 19" fill="none"><mask
    id="path-1-inside-1_3230_1022" fill="white"><path fill-rule="evenodd"
                                                      clip-rule="evenodd"
                                                      d="M10.9807 1.35495C10.542 -0.45165 7.97271 -0.45165 7.53406 1.35495C7.2507 2.52198 5.91365 3.07581 4.88807 2.45096C3.30044 1.48366 1.48366 3.30044 2.45096 4.88807C3.07581 5.91365 2.52198 7.2507 1.35495 7.53406C-0.45165 7.97271 -0.45165 10.542 1.35495 10.9807C2.52198 11.264 3.07581 12.6011 2.45096 13.6267C1.48366 15.2143 3.30044 17.0311 4.88807 16.0638C5.91365 15.4389 7.2507 15.9927 7.53406 17.1598C7.97271 18.9664 10.542 18.9664 10.9807 17.1598C11.264 15.9927 12.6011 15.4389 13.6267 16.0638C15.2143 17.0311 17.0311 15.2143 16.0638 13.6267C15.4389 12.6011 15.9927 11.264 17.1598 10.9807C18.9664 10.542 18.9664 7.97271 17.1598 7.53406C15.9927 7.2507 15.4389 5.91365 16.0638 4.88807C17.0311 3.30044 15.2143 1.48366 13.6267 2.45096C12.6011 3.07581 11.264 2.52198 10.9807 1.35495ZM9.25732 12.2578C10.9142 12.2578 12.2573 10.9147 12.2573 9.25784C12.2573 7.60098 10.9142 6.25784 9.25732 6.25784C7.60047 6.25784 6.25732 7.60098 6.25732 9.25784C6.25732 10.9147 7.60047 12.2578 9.25732 12.2578Z"/></mask><path
    fill-rule="evenodd" clip-rule="evenodd"
    d="M10.9807 1.35495C10.542 -0.45165 7.97271 -0.45165 7.53406 1.35495C7.2507 2.52198 5.91365 3.07581 4.88807 2.45096C3.30044 1.48366 1.48366 3.30044 2.45096 4.88807C3.07581 5.91365 2.52198 7.2507 1.35495 7.53406C-0.45165 7.97271 -0.45165 10.542 1.35495 10.9807C2.52198 11.264 3.07581 12.6011 2.45096 13.6267C1.48366 15.2143 3.30044 17.0311 4.88807 16.0638C5.91365 15.4389 7.2507 15.9927 7.53406 17.1598C7.97271 18.9664 10.542 18.9664 10.9807 17.1598C11.264 15.9927 12.6011 15.4389 13.6267 16.0638C15.2143 17.0311 17.0311 15.2143 16.0638 13.6267C15.4389 12.6011 15.9927 11.264 17.1598 10.9807C18.9664 10.542 18.9664 7.97271 17.1598 7.53406C15.9927 7.2507 15.4389 5.91365 16.0638 4.88807C17.0311 3.30044 15.2143 1.48366 13.6267 2.45096C12.6011 3.07581 11.264 2.52198 10.9807 1.35495ZM9.25732 12.2578C10.9142 12.2578 12.2573 10.9147 12.2573 9.25784C12.2573 7.60098 10.9142 6.25784 9.25732 6.25784C7.60047 6.25784 6.25732 7.60098 6.25732 9.25784C6.25732 10.9147 7.60047 12.2578 9.25732 12.2578Z"
    fill="#4070B5"/></svg>
