<svg version="1.0" xmlns="http://www.w3.org/2000/svg"
     width="23" height="29" viewBox="0 0 512.000000 512.000000"
     preserveAspectRatio="xMidYMid meet">
    <g transform="translate(0.000000,512.000000) scale(0.100000,-0.100000)"
       fill="#353535" stroke="none">
        <path
            d="M2260 5110 c-418 -52 -775 -223 -1069 -513 -264 -260 -435 -576 -512 -947 -31 -150 -38 -444 -14 -613 104 -741 635 -1723 1375 -2547 89 -100 267 -309 380 -449 l35 -43 166 188 c92 104 222 247 289 319 403 429 736 905 980 1400 476 965 498 1764 65 2410 -272 406 -700 688 -1175 775 -132 24 -401 34 -520 20z m397 -1010 c266 -67 483 -270 574 -539 28 -84 33 -112 37 -226 5 -161 -17 -266 -83 -400 -83 -166 -204 -287 -370 -369 -111 -55 -182 -74 -307 -83 -419 -27 -791 272 -858 690 -26 158 3 353 71 490 178 355 557 532 936 437z"/>
    </g>
</svg>
