<svg width="21" height="16" viewBox="0 0 21 16" fill="none" xmlns="http://www.w3.org/2000/svg">
    <path d="M1.50668 4.84026C1.63456 2.45122 3.5876 0.5 5.94402 0.5C7.11517 0.5 8.07113 1.12443 8.81096 1.81371C9.16252 2.14125 9.45094 2.46969 9.68619 2.73759C9.69676 2.74963 9.70723 2.76154 9.71758 2.77333C9.8332 2.90491 9.94704 3.03388 10.0447 3.12921C10.0933 3.17661 10.1529 3.2307 10.2187 3.27578C10.2687 3.30998 10.4007 3.39577 10.5797 3.39577C10.7451 3.39577 10.8718 3.32493 10.9314 3.28792C11.0022 3.24394 11.0665 3.19035 11.1199 3.142C11.2269 3.04511 11.3484 2.91523 11.4711 2.78195C11.5011 2.74938 11.5318 2.7159 11.5632 2.6816C11.7997 2.42366 12.0783 2.11989 12.4085 1.81553C13.1636 1.1195 14.1065 0.5 15.2152 0.5C17.5717 0.5 19.5246 2.45121 19.6525 4.84029C19.7246 6.19021 19.2974 7.21401 18.6569 8.18806C18.0218 9.15382 16.2708 10.8596 14.478 12.348C13.5902 13.0851 12.7119 13.7525 11.9834 14.2326C11.6185 14.4731 11.3001 14.6607 11.0426 14.7862C10.914 14.8489 10.8079 14.8925 10.724 14.9196C10.6825 14.933 10.6499 14.9413 10.6254 14.946C10.6133 14.9484 10.6042 14.9497 10.5977 14.9504C10.592 14.951 10.589 14.9511 10.5884 14.9511C10.5881 14.9511 10.5778 14.9508 10.5552 14.9463C10.5316 14.9416 10.4996 14.9334 10.4586 14.92C10.3757 14.8928 10.2702 14.8491 10.1419 14.7861C9.88511 14.66 9.56658 14.4717 9.20082 14.2303C8.47082 13.7485 7.58835 13.0792 6.69595 12.3408C5.80454 11.6033 4.91118 10.8034 4.15932 10.0636C3.40031 9.31668 2.80934 8.65403 2.502 8.18761L2.50198 8.18758C1.86336 7.21856 1.43456 6.19033 1.50668 4.84026ZM1.50668 4.84026L1.00741 4.81354L1.50668 4.84026Z" fill="#C4C4C4" stroke="#B1B1B1"/>
</svg>
