<svg width="23" height="16" viewBox="0 0 23 16" fill="none" xmlns="http://www.w3.org/2000/svg">
<circle cx="16.5" cy="3.5" r="3" fill="#4070B5" stroke="#3C65A0"/>
<circle cx="6.5" cy="5.5" r="3" fill="#4070B5" stroke="#3C65A0"/>
<path d="M10.5 12C10.5 10.067 12.067 8.5 14 8.5H19C20.933 8.5 22.5 10.067 22.5 12V13.5H10.5V12Z" fill="#4070B5" stroke="#3C65A0"/>
<path d="M0.5 14C0.5 12.067 2.067 10.5 4 10.5H9C10.933 10.5 12.5 12.067 12.5 14V15.5H0.5V14Z" fill="#4070B5" stroke="#3C65A0"/>
</svg>
