<svg width="15" height="19" viewBox="0 0 15 19" fill="none"
     xmlns="http://www.w3.org/2000/svg">
    <path
        d="M2.17726 4.65778L1.84449 5.98887L1.51172 6.98718V9.98212C1.51172 11.9787 1.84449 12.3115 1.84449 14.3081C1.84449 16.3048 3.84111 16.6375 4.50665 17.6358C5.1722 18.6342 8.4999 17.3031 9.16544 16.9703C9.69788 16.7041 10.2747 16.1938 10.4965 15.972L12.1604 12.6443L14.157 10.3149C14.157 10.204 14.0904 9.91556 13.8242 9.64935C13.558 9.38313 12.3822 9.31657 11.8276 9.31657L10.4965 10.6477L10.8293 4.65778L10.1638 2.32839H9.49821L8.4999 2.99393L7.50159 1.66285L7.16882 1.33008H6.83605L6.50328 2.66116H5.50497L4.83943 2.32839L4.50665 2.66116C4.39573 3.10486 4.10733 3.99224 3.84111 3.99224C3.5749 3.99224 3.06465 4.43594 2.8428 4.65778H2.17726Z"
        fill="#C4C4C4"/>
    <mask id="path-2-outside-1_7108_622" maskUnits="userSpaceOnUse"
          x="0.587402" y="0" width="15" height="19" fill="black">
        <rect
            fill="white" x="0.587402" width="15" height="19"/>
        <path
            d="M13.8462 11.3043C13.7321 11.4315 13.6126 11.5581 13.4969 11.6805C13.1901 11.9875 12.9099 12.3198 12.6591 12.674C12.4061 13.0728 12.1766 13.4858 11.9719 13.9112C11.8579 14.137 11.74 14.3703 11.6164 14.5955L11.5474 14.7214C11.2624 15.2404 10.9683 15.777 10.6435 16.2829C10.4659 16.5428 10.2468 16.7719 9.99515 16.9611C9.52961 17.3183 9.01307 17.6034 8.4628 17.8072C7.87824 18.0408 7.25447 18.1608 6.62497 18.1605C5.91444 18.1519 5.21097 18.0191 4.54612 17.7684C4.05943 17.5842 3.60938 17.3151 3.21704 16.9733C2.69751 16.5334 2.30353 15.9702 1.93946 15.1472C1.5596 14.2882 1.42948 13.3625 1.3037 12.4674C1.26644 12.2022 1.22797 11.928 1.18359 11.6601C1.14307 11.3786 1.12064 11.0948 1.1163 10.8104C1.10943 10.6232 1.10219 10.4296 1.08458 10.2411C0.914914 8.44338 1.12978 6.38612 1.5 5.33853C1.87022 4.29094 2.46959 3.63365 3.13369 3.70671C3.25891 3.72483 3.38081 3.95742 3.5 4C3.49882 4.20201 3.69178 4.32374 3.73547 4.33656C3.74449 4.29082 3.64754 3.74733 3.65529 3.70316C3.67326 3.58078 3.70144 3.46011 3.73943 3.3424C3.76317 3.27519 3.78612 3.20729 3.80915 3.13923C3.88902 2.86967 3.99904 2.61001 4.13715 2.36514C4.2163 2.23437 4.32284 2.12231 4.44947 2.03668C4.57611 1.95105 4.71977 1.89388 4.87063 1.86911C5.03312 1.8435 5.19926 1.85289 5.35787 1.89665C5.51649 1.94042 5.66387 2.01754 5.79027 2.12286C5.84567 2.16806 5.89869 2.2157 5.94753 2.25948C5.95545 2.26637 5.96273 2.27317 5.97025 2.27981C6.01544 2.1975 6.05922 2.11606 6.10251 2.03548C6.21799 1.82075 6.32705 1.61781 6.45132 1.41994C6.65711 1.09202 6.98763 0.952004 7.40681 1.01453C7.58911 1.03745 7.76341 1.10308 7.91554 1.2061C8.06768 1.30912 8.19331 1.4466 8.28226 1.60736C8.40768 1.84575 8.52022 2.0907 8.61937 2.34116C8.65411 2.42482 8.68888 2.50824 8.72449 2.59087C8.73565 2.57298 8.74695 2.55455 8.75852 2.53547C8.82403 2.42493 8.89519 2.31783 8.97168 2.2146C9.28621 1.80405 9.59731 1.62944 10.0678 1.86911C10.6081 2.14407 10.8269 2.75044 10.8663 3.1192C11.1096 5.23088 10.9011 7.38197 10.9066 9.50401V9.66888C10.9256 9.65305 10.9441 9.63722 10.9627 9.6206C10.9992 9.58894 11.037 9.55554 11.0775 9.52602C11.8857 8.93833 12.7461 8.73136 13.6347 8.91086C13.8276 8.94522 14.0087 9.02769 14.1612 9.15077C14.3136 9.27385 14.4324 9.4334 14.5067 9.61474C14.5795 9.80589 14.6036 10.0122 14.5767 10.2149C14.5499 10.4176 14.4729 10.6105 14.3529 10.7761C14.2631 10.8956 14.1611 11.0053 14.0485 11.1035C13.9799 11.168 13.9088 11.2345 13.8462 11.3043ZM10.1682 10.6316C10.1841 9.70109 10.2042 8.73199 10.2294 7.66855C10.2345 7.45215 10.2437 7.23235 10.2526 7.01952C10.2693 6.62052 10.2866 6.20799 10.2775 5.80353C10.2579 4.94247 10.204 4.06747 10.1519 3.22129L10.1462 3.12996C10.1214 2.72543 9.971 2.51259 9.65915 2.44191C9.40452 2.60812 9.24662 2.88199 9.17682 3.27972C9.0717 3.877 8.99774 4.47935 8.95521 5.08432C8.90281 5.83995 8.86292 6.60944 8.82429 7.35353C8.80197 7.78553 8.77956 8.21745 8.75471 8.6492C8.74793 8.74967 8.71845 8.84729 8.66845 8.93469C8.63028 9.0026 8.56932 9.05476 8.49635 9.08199C8.42339 9.10913 8.34314 9.10968 8.26984 9.08334C8.20033 9.07028 8.13797 9.03236 8.09437 8.97664C8.05076 8.92092 8.02891 8.85129 8.03288 8.78067C8.03343 8.67849 8.03089 8.57608 8.02836 8.47366C8.01871 8.26338 8.02247 8.0527 8.03961 7.8429C8.15278 6.75151 8.09652 5.64184 8.04214 4.56874L8.02979 4.32424C8.00605 3.84935 7.96702 3.38323 7.92816 2.94981C7.89175 2.54291 7.76876 2.2206 7.5522 1.9644C7.43656 1.82771 7.34245 1.76519 7.26608 1.77255C7.18741 1.78046 7.1088 1.85961 7.01882 2.02321C6.71805 2.56887 6.64065 3.18354 6.58746 3.7664C6.46691 5.08708 6.46589 6.48644 6.58406 8.30355C6.59054 8.40383 6.60289 8.50611 6.61476 8.60504C6.62995 8.73072 6.64563 8.86076 6.64983 8.98994C6.65585 9.16984 6.61065 9.29862 6.51575 9.37285C6.42085 9.4471 6.28511 9.45992 6.11257 9.4103C5.99138 9.38078 5.88287 9.31294 5.80324 9.21686C5.72355 9.12085 5.67692 9.00173 5.67028 8.87716L5.65738 8.73976C5.61558 8.36732 5.59294 7.99296 5.58962 7.61821C5.59801 6.64095 5.62611 5.64738 5.65294 4.68698L5.65951 4.45295C5.66244 4.34886 5.67264 4.24351 5.68246 4.14157C5.7104 3.85259 5.73676 3.57961 5.61645 3.3105L5.57744 3.22186C5.51704 3.0671 5.43877 2.91994 5.34417 2.78337C5.3107 2.73166 5.26416 2.68974 5.20923 2.66186C5.1543 2.63397 5.09304 2.62111 5.03154 2.62459C4.97234 2.63561 4.91708 2.66215 4.8715 2.70149C4.8259 2.74082 4.79156 2.79156 4.77201 2.8485C4.67212 3.09668 4.5959 3.35374 4.5443 3.61624C4.35243 4.48001 4.38188 5.37337 4.41038 6.23697L4.41164 6.2748C4.44543 7.29923 4.45984 8.32335 4.47044 9.2774C4.47385 9.58981 4.3716 9.72468 4.06521 9.81191C4.0117 9.83248 3.95415 9.84063 3.89702 9.83557C3.83987 9.83059 3.78462 9.81254 3.73547 9.78293C3.69162 9.74716 3.65647 9.70172 3.6329 9.65028C3.60922 9.59883 3.59774 9.54255 3.59925 9.48597C3.5877 9.30503 3.58794 9.12101 3.58809 8.943C3.58809 8.86608 3.58809 8.78914 3.58746 8.71227C3.58572 8.54485 3.58414 8.37745 3.58279 8.21009C3.57962 7.8509 3.57637 7.49165 3.57028 7.13246C3.5672 6.95359 3.56126 6.77463 3.55532 6.59576C3.54472 6.27915 3.53388 5.95132 3.5395 5.62894C3.54574 5.29747 3.39488 5.03208 3.23082 4.79471C3.20952 4.75724 3.18095 4.72444 3.14683 4.69822C3.11265 4.672 3.07354 4.65293 3.03183 4.6421C2.98363 4.63807 2.93503 4.64364 2.88896 4.65849C2.84298 4.67333 2.80031 4.69717 2.76351 4.72862C2.55774 4.87263 2.41665 5.09163 2.37058 5.33853L2.31487 5.61343C2.18234 6.26515 2.04571 6.93911 1.95647 7.60728C1.84637 8.51928 1.84311 9.44101 1.94694 10.3538C1.95852 10.4643 1.9596 10.5755 1.95008 10.6862C1.95647 11.5894 2.13072 12.6269 2.31487 13.5159C2.57775 14.7731 3.72658 16.6074 5 17C7.32084 17.7166 9.42934 16.7546 10.5488 14.7308C10.8665 14.1412 11.1871 13.5088 11.5014 12.8512C11.9842 11.8422 12.6008 11.0476 13.3877 10.4221C13.5208 10.3156 13.633 10.1852 13.7183 10.0375C13.7423 10 13.7581 9.95778 13.7646 9.91377C13.771 9.86968 13.768 9.82473 13.7557 9.7819C13.7363 9.73346 13.7069 9.68954 13.6696 9.65305C13.6322 9.61649 13.5877 9.58822 13.5387 9.56987C13.3833 9.50061 13.2149 9.46523 13.0447 9.46594C12.9526 9.46625 12.8607 9.4752 12.7703 9.49261C12.0785 9.62242 11.6153 9.87973 11.3123 10.3025C11.2056 10.4705 11.1232 10.6529 11.0677 10.844C11.051 10.8928 11.0342 10.9414 11.0168 10.9892C10.9492 11.1749 10.8545 11.347 10.6218 11.3485C10.4132 11.3479 10.2671 11.2228 10.2126 11.0002C10.1822 10.8797 10.1673 10.7559 10.1682 10.6316Z"/>
    </mask>
    <path
        d="M13.8462 11.3043C13.7321 11.4315 13.6126 11.5581 13.4969 11.6805C13.1901 11.9875 12.9099 12.3198 12.6591 12.674C12.4061 13.0728 12.1766 13.4858 11.9719 13.9112C11.8579 14.137 11.74 14.3703 11.6164 14.5955L11.5474 14.7214C11.2624 15.2404 10.9683 15.777 10.6435 16.2829C10.4659 16.5428 10.2468 16.7719 9.99515 16.9611C9.52961 17.3183 9.01307 17.6034 8.4628 17.8072C7.87824 18.0408 7.25447 18.1608 6.62497 18.1605C5.91444 18.1519 5.21097 18.0191 4.54612 17.7684C4.05943 17.5842 3.60938 17.3151 3.21704 16.9733C2.69751 16.5334 2.30353 15.9702 1.93946 15.1472C1.5596 14.2882 1.42948 13.3625 1.3037 12.4674C1.26644 12.2022 1.22797 11.928 1.18359 11.6601C1.14307 11.3786 1.12064 11.0948 1.1163 10.8104C1.10943 10.6232 1.10219 10.4296 1.08458 10.2411C0.914914 8.44338 1.12978 6.38612 1.5 5.33853C1.87022 4.29094 2.46959 3.63365 3.13369 3.70671C3.25891 3.72483 3.38081 3.95742 3.5 4C3.49882 4.20201 3.69178 4.32374 3.73547 4.33656C3.74449 4.29082 3.64754 3.74733 3.65529 3.70316C3.67326 3.58078 3.70144 3.46011 3.73943 3.3424C3.76317 3.27519 3.78612 3.20729 3.80915 3.13923C3.88902 2.86967 3.99904 2.61001 4.13715 2.36514C4.2163 2.23437 4.32284 2.12231 4.44947 2.03668C4.57611 1.95105 4.71977 1.89388 4.87063 1.86911C5.03312 1.8435 5.19926 1.85289 5.35787 1.89665C5.51649 1.94042 5.66387 2.01754 5.79027 2.12286C5.84567 2.16806 5.89869 2.2157 5.94753 2.25948C5.95545 2.26637 5.96273 2.27317 5.97025 2.27981C6.01544 2.1975 6.05922 2.11606 6.10251 2.03548C6.21799 1.82075 6.32705 1.61781 6.45132 1.41994C6.65711 1.09202 6.98763 0.952004 7.40681 1.01453C7.58911 1.03745 7.76341 1.10308 7.91554 1.2061C8.06768 1.30912 8.19331 1.4466 8.28226 1.60736C8.40768 1.84575 8.52022 2.0907 8.61937 2.34116C8.65411 2.42482 8.68888 2.50824 8.72449 2.59087C8.73565 2.57298 8.74695 2.55455 8.75852 2.53547C8.82403 2.42493 8.89519 2.31783 8.97168 2.2146C9.28621 1.80405 9.59731 1.62944 10.0678 1.86911C10.6081 2.14407 10.8269 2.75044 10.8663 3.1192C11.1096 5.23088 10.9011 7.38197 10.9066 9.50401V9.66888C10.9256 9.65305 10.9441 9.63722 10.9627 9.6206C10.9992 9.58894 11.037 9.55554 11.0775 9.52602C11.8857 8.93833 12.7461 8.73136 13.6347 8.91086C13.8276 8.94522 14.0087 9.02769 14.1612 9.15077C14.3136 9.27385 14.4324 9.4334 14.5067 9.61474C14.5795 9.80589 14.6036 10.0122 14.5767 10.2149C14.5499 10.4176 14.4729 10.6105 14.3529 10.7761C14.2631 10.8956 14.1611 11.0053 14.0485 11.1035C13.9799 11.168 13.9088 11.2345 13.8462 11.3043ZM10.1682 10.6316C10.1841 9.70109 10.2042 8.73199 10.2294 7.66855C10.2345 7.45215 10.2437 7.23235 10.2526 7.01952C10.2693 6.62052 10.2866 6.20799 10.2775 5.80353C10.2579 4.94247 10.204 4.06747 10.1519 3.22129L10.1462 3.12996C10.1214 2.72543 9.971 2.51259 9.65915 2.44191C9.40452 2.60812 9.24662 2.88199 9.17682 3.27972C9.0717 3.877 8.99774 4.47935 8.95521 5.08432C8.90281 5.83995 8.86292 6.60944 8.82429 7.35353C8.80197 7.78553 8.77956 8.21745 8.75471 8.6492C8.74793 8.74967 8.71845 8.84729 8.66845 8.93469C8.63028 9.0026 8.56932 9.05476 8.49635 9.08199C8.42339 9.10913 8.34314 9.10968 8.26984 9.08334C8.20033 9.07028 8.13797 9.03236 8.09437 8.97664C8.05076 8.92092 8.02891 8.85129 8.03288 8.78067C8.03343 8.67849 8.03089 8.57608 8.02836 8.47366C8.01871 8.26338 8.02247 8.0527 8.03961 7.8429C8.15278 6.75151 8.09652 5.64184 8.04214 4.56874L8.02979 4.32424C8.00605 3.84935 7.96702 3.38323 7.92816 2.94981C7.89175 2.54291 7.76876 2.2206 7.5522 1.9644C7.43656 1.82771 7.34245 1.76519 7.26608 1.77255C7.18741 1.78046 7.1088 1.85961 7.01882 2.02321C6.71805 2.56887 6.64065 3.18354 6.58746 3.7664C6.46691 5.08708 6.46589 6.48644 6.58406 8.30355C6.59054 8.40383 6.60289 8.50611 6.61476 8.60504C6.62995 8.73072 6.64563 8.86076 6.64983 8.98994C6.65585 9.16984 6.61065 9.29862 6.51575 9.37285C6.42085 9.4471 6.28511 9.45992 6.11257 9.4103C5.99138 9.38078 5.88287 9.31294 5.80324 9.21686C5.72355 9.12085 5.67692 9.00173 5.67028 8.87716L5.65738 8.73976C5.61558 8.36732 5.59294 7.99296 5.58962 7.61821C5.59801 6.64095 5.62611 5.64738 5.65294 4.68698L5.65951 4.45295C5.66244 4.34886 5.67264 4.24351 5.68246 4.14157C5.7104 3.85259 5.73676 3.57961 5.61645 3.3105L5.57744 3.22186C5.51704 3.0671 5.43877 2.91994 5.34417 2.78337C5.3107 2.73166 5.26416 2.68974 5.20923 2.66186C5.1543 2.63397 5.09304 2.62111 5.03154 2.62459C4.97234 2.63561 4.91708 2.66215 4.8715 2.70149C4.8259 2.74082 4.79156 2.79156 4.77201 2.8485C4.67212 3.09668 4.5959 3.35374 4.5443 3.61624C4.35243 4.48001 4.38188 5.37337 4.41038 6.23697L4.41164 6.2748C4.44543 7.29923 4.45984 8.32335 4.47044 9.2774C4.47385 9.58981 4.3716 9.72468 4.06521 9.81191C4.0117 9.83248 3.95415 9.84063 3.89702 9.83557C3.83987 9.83059 3.78462 9.81254 3.73547 9.78293C3.69162 9.74716 3.65647 9.70172 3.6329 9.65028C3.60922 9.59883 3.59774 9.54255 3.59925 9.48597C3.5877 9.30503 3.58794 9.12101 3.58809 8.943C3.58809 8.86608 3.58809 8.78914 3.58746 8.71227C3.58572 8.54485 3.58414 8.37745 3.58279 8.21009C3.57962 7.8509 3.57637 7.49165 3.57028 7.13246C3.5672 6.95359 3.56126 6.77463 3.55532 6.59576C3.54472 6.27915 3.53388 5.95132 3.5395 5.62894C3.54574 5.29747 3.39488 5.03208 3.23082 4.79471C3.20952 4.75724 3.18095 4.72444 3.14683 4.69822C3.11265 4.672 3.07354 4.65293 3.03183 4.6421C2.98363 4.63807 2.93503 4.64364 2.88896 4.65849C2.84298 4.67333 2.80031 4.69717 2.76351 4.72862C2.55774 4.87263 2.41665 5.09163 2.37058 5.33853L2.31487 5.61343C2.18234 6.26515 2.04571 6.93911 1.95647 7.60728C1.84637 8.51928 1.84311 9.44101 1.94694 10.3538C1.95852 10.4643 1.9596 10.5755 1.95008 10.6862C1.95647 11.5894 2.13072 12.6269 2.31487 13.5159C2.57775 14.7731 3.72658 16.6074 5 17C7.32084 17.7166 9.42934 16.7546 10.5488 14.7308C10.8665 14.1412 11.1871 13.5088 11.5014 12.8512C11.9842 11.8422 12.6008 11.0476 13.3877 10.4221C13.5208 10.3156 13.633 10.1852 13.7183 10.0375C13.7423 10 13.7581 9.95778 13.7646 9.91377C13.771 9.86968 13.768 9.82473 13.7557 9.7819C13.7363 9.73346 13.7069 9.68954 13.6696 9.65305C13.6322 9.61649 13.5877 9.58822 13.5387 9.56987C13.3833 9.50061 13.2149 9.46523 13.0447 9.46594C12.9526 9.46625 12.8607 9.4752 12.7703 9.49261C12.0785 9.62242 11.6153 9.87973 11.3123 10.3025C11.2056 10.4705 11.1232 10.6529 11.0677 10.844C11.051 10.8928 11.0342 10.9414 11.0168 10.9892C10.9492 11.1749 10.8545 11.347 10.6218 11.3485C10.4132 11.3479 10.2671 11.2228 10.2126 11.0002C10.1822 10.8797 10.1673 10.7559 10.1682 10.6316Z"
        fill="#B1B1B1"/>
    <path
        d="M13.8462 11.3043C13.7321 11.4315 13.6126 11.5581 13.4969 11.6805C13.1901 11.9875 12.9099 12.3198 12.6591 12.674C12.4061 13.0728 12.1766 13.4858 11.9719 13.9112C11.8579 14.137 11.74 14.3703 11.6164 14.5955L11.5474 14.7214C11.2624 15.2404 10.9683 15.777 10.6435 16.2829C10.4659 16.5428 10.2468 16.7719 9.99515 16.9611C9.52961 17.3183 9.01307 17.6034 8.4628 17.8072C7.87824 18.0408 7.25447 18.1608 6.62497 18.1605C5.91444 18.1519 5.21097 18.0191 4.54612 17.7684C4.05943 17.5842 3.60938 17.3151 3.21704 16.9733C2.69751 16.5334 2.30353 15.9702 1.93946 15.1472C1.5596 14.2882 1.42948 13.3625 1.3037 12.4674C1.26644 12.2022 1.22797 11.928 1.18359 11.6601C1.14307 11.3786 1.12064 11.0948 1.1163 10.8104C1.10943 10.6232 1.10219 10.4296 1.08458 10.2411C0.914914 8.44338 1.12978 6.38612 1.5 5.33853C1.87022 4.29094 2.46959 3.63365 3.13369 3.70671C3.25891 3.72483 3.38081 3.95742 3.5 4C3.49882 4.20201 3.69178 4.32374 3.73547 4.33656C3.74449 4.29082 3.64754 3.74733 3.65529 3.70316C3.67326 3.58078 3.70144 3.46011 3.73943 3.3424C3.76317 3.27519 3.78612 3.20729 3.80915 3.13923C3.88902 2.86967 3.99904 2.61001 4.13715 2.36514C4.2163 2.23437 4.32284 2.12231 4.44947 2.03668C4.57611 1.95105 4.71977 1.89388 4.87063 1.86911C5.03312 1.8435 5.19926 1.85289 5.35787 1.89665C5.51649 1.94042 5.66387 2.01754 5.79027 2.12286C5.84567 2.16806 5.89869 2.2157 5.94753 2.25948C5.95545 2.26637 5.96273 2.27317 5.97025 2.27981C6.01544 2.1975 6.05922 2.11606 6.10251 2.03548C6.21799 1.82075 6.32705 1.61781 6.45132 1.41994C6.65711 1.09202 6.98763 0.952004 7.40681 1.01453C7.58911 1.03745 7.76341 1.10308 7.91554 1.2061C8.06768 1.30912 8.19331 1.4466 8.28226 1.60736C8.40768 1.84575 8.52022 2.0907 8.61937 2.34116C8.65411 2.42482 8.68888 2.50824 8.72449 2.59087C8.73565 2.57298 8.74695 2.55455 8.75852 2.53547C8.82403 2.42493 8.89519 2.31783 8.97168 2.2146C9.28621 1.80405 9.59731 1.62944 10.0678 1.86911C10.6081 2.14407 10.8269 2.75044 10.8663 3.1192C11.1096 5.23088 10.9011 7.38197 10.9066 9.50401V9.66888C10.9256 9.65305 10.9441 9.63722 10.9627 9.6206C10.9992 9.58894 11.037 9.55554 11.0775 9.52602C11.8857 8.93833 12.7461 8.73136 13.6347 8.91086C13.8276 8.94522 14.0087 9.02769 14.1612 9.15077C14.3136 9.27385 14.4324 9.4334 14.5067 9.61474C14.5795 9.80589 14.6036 10.0122 14.5767 10.2149C14.5499 10.4176 14.4729 10.6105 14.3529 10.7761C14.2631 10.8956 14.1611 11.0053 14.0485 11.1035C13.9799 11.168 13.9088 11.2345 13.8462 11.3043ZM10.1682 10.6316C10.1841 9.70109 10.2042 8.73199 10.2294 7.66855C10.2345 7.45215 10.2437 7.23235 10.2526 7.01952C10.2693 6.62052 10.2866 6.20799 10.2775 5.80353C10.2579 4.94247 10.204 4.06747 10.1519 3.22129L10.1462 3.12996C10.1214 2.72543 9.971 2.51259 9.65915 2.44191C9.40452 2.60812 9.24662 2.88199 9.17682 3.27972C9.0717 3.877 8.99774 4.47935 8.95521 5.08432C8.90281 5.83995 8.86292 6.60944 8.82429 7.35353C8.80197 7.78553 8.77956 8.21745 8.75471 8.6492C8.74793 8.74967 8.71845 8.84729 8.66845 8.93469C8.63028 9.0026 8.56932 9.05476 8.49635 9.08199C8.42339 9.10913 8.34314 9.10968 8.26984 9.08334C8.20033 9.07028 8.13797 9.03236 8.09437 8.97664C8.05076 8.92092 8.02891 8.85129 8.03288 8.78067C8.03343 8.67849 8.03089 8.57608 8.02836 8.47366C8.01871 8.26338 8.02247 8.0527 8.03961 7.8429C8.15278 6.75151 8.09652 5.64184 8.04214 4.56874L8.02979 4.32424C8.00605 3.84935 7.96702 3.38323 7.92816 2.94981C7.89175 2.54291 7.76876 2.2206 7.5522 1.9644C7.43656 1.82771 7.34245 1.76519 7.26608 1.77255C7.18741 1.78046 7.1088 1.85961 7.01882 2.02321C6.71805 2.56887 6.64065 3.18354 6.58746 3.7664C6.46691 5.08708 6.46589 6.48644 6.58406 8.30355C6.59054 8.40383 6.60289 8.50611 6.61476 8.60504C6.62995 8.73072 6.64563 8.86076 6.64983 8.98994C6.65585 9.16984 6.61065 9.29862 6.51575 9.37285C6.42085 9.4471 6.28511 9.45992 6.11257 9.4103C5.99138 9.38078 5.88287 9.31294 5.80324 9.21686C5.72355 9.12085 5.67692 9.00173 5.67028 8.87716L5.65738 8.73976C5.61558 8.36732 5.59294 7.99296 5.58962 7.61821C5.59801 6.64095 5.62611 5.64738 5.65294 4.68698L5.65951 4.45295C5.66244 4.34886 5.67264 4.24351 5.68246 4.14157C5.7104 3.85259 5.73676 3.57961 5.61645 3.3105L5.57744 3.22186C5.51704 3.0671 5.43877 2.91994 5.34417 2.78337C5.3107 2.73166 5.26416 2.68974 5.20923 2.66186C5.1543 2.63397 5.09304 2.62111 5.03154 2.62459C4.97234 2.63561 4.91708 2.66215 4.8715 2.70149C4.8259 2.74082 4.79156 2.79156 4.77201 2.8485C4.67212 3.09668 4.5959 3.35374 4.5443 3.61624C4.35243 4.48001 4.38188 5.37337 4.41038 6.23697L4.41164 6.2748C4.44543 7.29923 4.45984 8.32335 4.47044 9.2774C4.47385 9.58981 4.3716 9.72468 4.06521 9.81191C4.0117 9.83248 3.95415 9.84063 3.89702 9.83557C3.83987 9.83059 3.78462 9.81254 3.73547 9.78293C3.69162 9.74716 3.65647 9.70172 3.6329 9.65028C3.60922 9.59883 3.59774 9.54255 3.59925 9.48597C3.5877 9.30503 3.58794 9.12101 3.58809 8.943C3.58809 8.86608 3.58809 8.78914 3.58746 8.71227C3.58572 8.54485 3.58414 8.37745 3.58279 8.21009C3.57962 7.8509 3.57637 7.49165 3.57028 7.13246C3.5672 6.95359 3.56126 6.77463 3.55532 6.59576C3.54472 6.27915 3.53388 5.95132 3.5395 5.62894C3.54574 5.29747 3.39488 5.03208 3.23082 4.79471C3.20952 4.75724 3.18095 4.72444 3.14683 4.69822C3.11265 4.672 3.07354 4.65293 3.03183 4.6421C2.98363 4.63807 2.93503 4.64364 2.88896 4.65849C2.84298 4.67333 2.80031 4.69717 2.76351 4.72862C2.55774 4.87263 2.41665 5.09163 2.37058 5.33853L2.31487 5.61343C2.18234 6.26515 2.04571 6.93911 1.95647 7.60728C1.84637 8.51928 1.84311 9.44101 1.94694 10.3538C1.95852 10.4643 1.9596 10.5755 1.95008 10.6862C1.95647 11.5894 2.13072 12.6269 2.31487 13.5159C2.57775 14.7731 3.72658 16.6074 5 17C7.32084 17.7166 9.42934 16.7546 10.5488 14.7308C10.8665 14.1412 11.1871 13.5088 11.5014 12.8512C11.9842 11.8422 12.6008 11.0476 13.3877 10.4221C13.5208 10.3156 13.633 10.1852 13.7183 10.0375C13.7423 10 13.7581 9.95778 13.7646 9.91377C13.771 9.86968 13.768 9.82473 13.7557 9.7819C13.7363 9.73346 13.7069 9.68954 13.6696 9.65305C13.6322 9.61649 13.5877 9.58822 13.5387 9.56987C13.3833 9.50061 13.2149 9.46523 13.0447 9.46594C12.9526 9.46625 12.8607 9.4752 12.7703 9.49261C12.0785 9.62242 11.6153 9.87973 11.3123 10.3025C11.2056 10.4705 11.1232 10.6529 11.0677 10.844C11.051 10.8928 11.0342 10.9414 11.0168 10.9892C10.9492 11.1749 10.8545 11.347 10.6218 11.3485C10.4132 11.3479 10.2671 11.2228 10.2126 11.0002C10.1822 10.8797 10.1673 10.7559 10.1682 10.6316Z"
        stroke="#B1B1B1" stroke-width="0.2"
        mask="url(#path-2-outside-1_7108_622)"/>
</svg>
