<svg width="23" height="23" viewBox="0 0 23 23" fill="none" xmlns="http://www.w3.org/2000/svg">
<circle cx="11.5002" cy="11.5" r="10.85" fill="white" stroke="#353535" stroke-width="1.3"/>
<path d="M9.00024 16V7L16.0002 11.5L9.00024 16Z" fill="#353535"/>
</svg>
