<svg viewBox="0 0 27 26" fill="none" xmlns="http://www.w3.org/2000/svg">
    <path
        d="M11.7034 0.0648463C13.9626 -0.162105 16.2825 0.208383 18.3506 1.14923C21.1222 2.3934 23.4242 4.64504 24.729 7.38903C25.5707 9.13098 25.9997 11.0663 26.0014 13C17.3344 13 8.66694 13 1.59941e-06 13C-0.0010817 10.8263 0.548151 8.65324 1.59949 6.74989C2.58096 4.96082 3.98817 3.40682 5.67649 2.26015C7.45852 1.03711 9.55254 0.273923 11.7034 0.0648463Z"
        fill="#005BBB"/>
    <path
        d="M0 13C8.66694 13 17.3344 13 26.0014 13C26.0019 15.1731 25.4537 17.3462 24.4019 19.2496C23.4204 21.0381 22.0137 22.5926 20.3259 23.7393C18.682 24.867 16.7727 25.6058 14.7973 25.8761C12.4227 26.207 9.95606 25.8728 7.76292 24.9011C6.20893 24.2181 4.79523 23.2231 3.6193 22.0006C2.38922 20.7163 1.42183 19.1802 0.805433 17.5114C0.270283 16.0717 0.0021666 14.535 0 13Z"
        fill="#FFD500"/>
</svg>
